\relax 
\providecommand\babel@aux[2]{}
\@nameuse{bbl@beforestart}
\catcode `"\active 
\catcode `<\active 
\catcode `>\active 
\@nameuse{es@quoting}
\catcode `'\active 
\babel@aux{spanish}{}
\newlabel{problema_palabras}{{1}{1}}
\newlabel{problema_matrices}{{2}{1}}
\gdef \@abspage@last{2}
